EESchema Schematic File Version 4
EELAYER 30 0
EELAYER END
$Descr A2 23386 16535
encoding utf-8
Sheet 2 2
Title "Electonic Schematics"
Date "14 juin 2020"
Rev "A"
Comp "Lilian T."
Comment1 "TL 500 024"
Comment2 "Nano PC"
Comment3 "Interconnexion"
Comment4 "Connecteurs & Interrupteurs"
$EndDescr
$Comp
L Connector:Barrel_Jack_Switch J?
U 1 1 5EE68AA0
P 3700 6100
F 0 "J?" H 3757 6417 50  0000 C CNN
F 1 "Barrel_Jack_Switch" H 3757 6326 50  0000 C CNN
F 2 "" H 3750 6060 50  0001 C CNN
F 3 "~" H 3750 6060 50  0001 C CNN
	1    3700 6100
	1    0    0    -1  
$EndComp
$Comp
L Connector:Barrel_Jack_Switch J?
U 1 1 5EE692BA
P 3700 7600
F 0 "J?" H 3757 7917 50  0000 C CNN
F 1 "Barrel_Jack_Switch" H 3757 7826 50  0000 C CNN
F 2 "" H 3750 7560 50  0001 C CNN
F 3 "~" H 3750 7560 50  0001 C CNN
	1    3700 7600
	1    0    0    -1  
$EndComp
$Comp
L Switch:SW_Push_SPDT SW?
U 1 1 5EE69DFD
P 3400 3800
F 0 "SW?" V 3446 3612 50  0000 R CNN
F 1 "SW_Push_SPDT" V 3355 3612 50  0000 R CNN
F 2 "" H 3400 3800 50  0001 C CNN
F 3 "~" H 3400 3800 50  0001 C CNN
	1    3400 3800
	0    -1   -1   0   
$EndComp
$Comp
L Switch:SW_Push_SPDT SW?
U 1 1 5EE6AA6E
P 3400 4800
F 0 "SW?" V 3446 4612 50  0000 R CNN
F 1 "SW_Push_SPDT" V 3355 4612 50  0000 R CNN
F 2 "" H 3400 4800 50  0001 C CNN
F 3 "~" H 3400 4800 50  0001 C CNN
	1    3400 4800
	0    -1   -1   0   
$EndComp
Wire Notes Line
	2500 2500 5500 2500
Wire Notes Line
	5500 8500 2500 8500
Wire Notes Line
	2500 8500 2500 2500
Wire Notes Line
	5500 2500 5500 8500
Text Notes 2600 2400 0    79   ~ 16
Face Avant
Text Notes 16600 2400 0    79   ~ 16
Vers Alimentation
$Comp
L Connector_Generic:Conn_01x02 J?
U 1 1 5EE763CD
P 8600 12950
F 0 "J?" V 8750 12800 50  0000 L CNN
F 1 "Conn_01x02" V 8850 12800 50  0000 L CNN
F 2 "" H 8600 12950 50  0001 C CNN
F 3 "~" H 8600 12950 50  0001 C CNN
	1    8600 12950
	0    1    1    0   
$EndComp
$Comp
L Connector_Generic:Conn_02x06_Odd_Even J?
U 1 1 5EE767E5
P 13450 12000
F 0 "J?" H 13300 11550 50  0000 C CNN
F 1 "Conn_02x06_Odd_Even" H 13250 11450 50  0000 C CNN
F 2 "" H 13450 12000 50  0001 C CNN
F 3 "~" H 13450 12000 50  0001 C CNN
	1    13450 12000
	1    0    0    -1  
$EndComp
$Comp
L Connector_Generic:Conn_01x03 J?
U 1 1 5EE7783E
P 18000 3200
F 0 "J?" H 18080 3242 50  0000 L CNN
F 1 "Conn_01x03" H 18080 3151 50  0000 L CNN
F 2 "" H 18000 3200 50  0001 C CNN
F 3 "~" H 18000 3200 50  0001 C CNN
	1    18000 3200
	1    0    0    -1  
$EndComp
$Comp
L Connector_Generic:Conn_01x03 J?
U 1 1 5EE78222
P 18000 4100
F 0 "J?" H 18080 4142 50  0000 L CNN
F 1 "Conn_01x03" H 18080 4051 50  0000 L CNN
F 2 "" H 18000 4100 50  0001 C CNN
F 3 "~" H 18000 4100 50  0001 C CNN
	1    18000 4100
	1    0    0    -1  
$EndComp
$Comp
L Device:D D?
U 1 1 5EE88B79
P 8750 12250
F 0 "D?" H 8700 12100 50  0000 C CNN
F 1 "D" H 8700 12000 50  0000 C CNN
F 2 "" H 8750 12250 50  0001 C CNN
F 3 "~" H 8750 12250 50  0001 C CNN
	1    8750 12250
	1    0    0    -1  
$EndComp
$Comp
L Device:C C?
U 1 1 5EE8953F
P 8750 12000
F 0 "C?" V 8498 12000 50  0000 C CNN
F 1 "C" V 8589 12000 50  0000 C CNN
F 2 "" H 8788 11850 50  0001 C CNN
F 3 "~" H 8750 12000 50  0001 C CNN
	1    8750 12000
	0    1    1    0   
$EndComp
$Comp
L Device:C C?
U 1 1 5EE8AEE5
P 8250 12550
F 0 "C?" H 7850 12600 50  0000 L CNN
F 1 "C" H 7850 12500 50  0000 L CNN
F 2 "" H 8288 12400 50  0001 C CNN
F 3 "~" H 8250 12550 50  0001 C CNN
	1    8250 12550
	1    0    0    -1  
$EndComp
$Comp
L power:GND #PWR?
U 1 1 5EE8BFD7
P 8250 12750
F 0 "#PWR?" H 8250 12500 50  0001 C CNN
F 1 "GND" H 8255 12577 50  0000 C CNN
F 2 "" H 8250 12750 50  0001 C CNN
F 3 "" H 8250 12750 50  0001 C CNN
	1    8250 12750
	1    0    0    -1  
$EndComp
Wire Wire Line
	8250 12700 8250 12750
Wire Wire Line
	8600 12750 8600 12650
Wire Wire Line
	8500 12750 8500 12350
Wire Wire Line
	8500 12250 8600 12250
Wire Wire Line
	8250 12400 8250 12350
Wire Wire Line
	8250 12350 8500 12350
Connection ~ 8500 12350
Wire Wire Line
	8500 12350 8500 12250
Wire Wire Line
	8600 12650 9000 12650
Wire Wire Line
	9000 12650 9000 12350
Wire Wire Line
	9000 12250 8900 12250
Wire Wire Line
	8500 12250 8500 12000
Wire Wire Line
	8500 12000 8600 12000
Connection ~ 8500 12250
Wire Wire Line
	8900 12000 9000 12000
Wire Wire Line
	9000 12000 9000 12250
Connection ~ 9000 12250
$Comp
L Device:R R?
U 1 1 5EE90774
P 9200 12550
F 0 "R?" H 9270 12596 50  0000 L CNN
F 1 "0" H 9270 12505 50  0000 L CNN
F 2 "" V 9130 12550 50  0001 C CNN
F 3 "~" H 9200 12550 50  0001 C CNN
	1    9200 12550
	1    0    0    -1  
$EndComp
$Comp
L power:GND #PWR?
U 1 1 5EE91296
P 9200 12750
F 0 "#PWR?" H 9200 12500 50  0001 C CNN
F 1 "GND" H 9205 12577 50  0000 C CNN
F 2 "" H 9200 12750 50  0001 C CNN
F 3 "" H 9200 12750 50  0001 C CNN
	1    9200 12750
	1    0    0    -1  
$EndComp
Wire Wire Line
	9200 12700 9200 12750
Wire Wire Line
	9200 12400 9200 12350
Wire Wire Line
	9200 12350 9000 12350
Connection ~ 9000 12350
Wire Wire Line
	9000 12350 9000 12250
$Comp
L Device:Q_NMOS_DGS Q?
U 1 1 5EE91B51
P 9750 12300
F 0 "Q?" H 9650 12050 50  0000 L CNN
F 1 "Q_NMOS_DGS" H 9250 11950 50  0000 L CNN
F 2 "" H 9950 12400 50  0001 C CNN
F 3 "~" H 9750 12300 50  0001 C CNN
	1    9750 12300
	-1   0    0    -1  
$EndComp
$Comp
L power:GND #PWR?
U 1 1 5EE956B6
P 9650 12750
F 0 "#PWR?" H 9650 12500 50  0001 C CNN
F 1 "GND" H 9655 12577 50  0000 C CNN
F 2 "" H 9650 12750 50  0001 C CNN
F 3 "" H 9650 12750 50  0001 C CNN
	1    9650 12750
	1    0    0    -1  
$EndComp
Wire Wire Line
	9650 12500 9650 12750
Wire Wire Line
	9650 12100 9650 12000
Wire Wire Line
	9650 12000 9000 12000
Connection ~ 9000 12000
$Comp
L Device:R R?
U 1 1 5EE9603B
P 10250 12300
F 0 "R?" V 10043 12300 50  0000 C CNN
F 1 "10k" V 10134 12300 50  0000 C CNN
F 2 "" V 10180 12300 50  0001 C CNN
F 3 "~" H 10250 12300 50  0001 C CNN
	1    10250 12300
	0    1    1    0   
$EndComp
Wire Wire Line
	10100 12300 9950 12300
Text Notes 7600 10900 0    79   ~ 16
Vers Rapsberry Pi
NoConn ~ 3300 4600
Wire Wire Line
	3400 5000 3400 5100
Wire Wire Line
	3500 4600 3500 4500
Wire Wire Line
	3500 4500 4500 4500
Wire Wire Line
	3400 4000 3400 4100
Wire Wire Line
	3500 3600 3500 3500
NoConn ~ 3300 3600
Wire Wire Line
	17100 4000 17100 3200
Wire Wire Line
	17800 3300 17750 3300
Wire Wire Line
	17750 3300 17750 3450
Wire Wire Line
	17800 4200 17750 4200
Wire Wire Line
	17750 4200 17750 4350
$Comp
L power:GND #PWR?
U 1 1 5EEBA88C
P 17750 4350
F 0 "#PWR?" H 17750 4100 50  0001 C CNN
F 1 "GND" H 17755 4177 50  0000 C CNN
F 2 "" H 17750 4350 50  0001 C CNN
F 3 "" H 17750 4350 50  0001 C CNN
	1    17750 4350
	1    0    0    -1  
$EndComp
$Comp
L power:GND #PWR?
U 1 1 5EEBAB36
P 17750 3450
F 0 "#PWR?" H 17750 3200 50  0001 C CNN
F 1 "GND" H 17755 3277 50  0000 C CNN
F 2 "" H 17750 3450 50  0001 C CNN
F 3 "" H 17750 3450 50  0001 C CNN
	1    17750 3450
	1    0    0    -1  
$EndComp
Wire Wire Line
	17200 3100 17200 4000
Wire Wire Line
	3500 3500 4500 3500
Wire Wire Line
	4500 3500 4500 4000
NoConn ~ 4000 6100
Wire Wire Line
	4000 6200 4050 6200
Wire Wire Line
	4050 6200 4050 6350
$Comp
L power:GND #PWR?
U 1 1 5EEE339E
P 4050 6350
F 0 "#PWR?" H 4050 6100 50  0001 C CNN
F 1 "GND" H 4055 6177 50  0000 C CNN
F 2 "" H 4050 6350 50  0001 C CNN
F 3 "" H 4050 6350 50  0001 C CNN
	1    4050 6350
	1    0    0    -1  
$EndComp
Wire Wire Line
	4000 7700 4050 7700
Wire Wire Line
	4050 7700 4050 7850
$Comp
L power:GND #PWR?
U 1 1 5EEE455F
P 4050 7850
F 0 "#PWR?" H 4050 7600 50  0001 C CNN
F 1 "GND" H 4055 7677 50  0000 C CNN
F 2 "" H 4050 7850 50  0001 C CNN
F 3 "" H 4050 7850 50  0001 C CNN
	1    4050 7850
	1    0    0    -1  
$EndComp
NoConn ~ 4000 7600
$Comp
L power:GND #PWR?
U 1 1 5EEF41AD
P 18350 6950
F 0 "#PWR?" H 18350 6700 50  0001 C CNN
F 1 "GND" H 18355 6777 50  0000 C CNN
F 2 "" H 18350 6950 50  0001 C CNN
F 3 "" H 18350 6950 50  0001 C CNN
	1    18350 6950
	1    0    0    -1  
$EndComp
Text Label 17400 4100 0    50   ~ 0
VBAT
Text Label 17350 3200 0    50   ~ 0
VBAT_SW
Wire Wire Line
	17200 3100 17800 3100
Wire Wire Line
	17100 3200 17800 3200
Wire Wire Line
	17200 4000 17800 4000
Text Label 17350 3100 0    50   ~ 0
NTC
Text Label 17400 4000 0    50   ~ 0
NTC
Text Label 4650 4100 0    50   ~ 0
VBAT
Text Label 4650 4000 0    50   ~ 0
VBAT_SW
$Comp
L Connector_Generic:Conn_02x09_Odd_Even J?
U 1 1 5EE78964
P 18000 6400
F 0 "J?" H 18050 7150 50  0000 R CNN
F 1 "Conn_02x09_Odd_Even" H 18550 7050 50  0000 R CNN
F 2 "" H 18000 6400 50  0001 C CNN
F 3 "~" H 18000 6400 50  0001 C CNN
	1    18000 6400
	1    0    0    -1  
$EndComp
Wire Wire Line
	18300 6000 18350 6000
Connection ~ 17700 6000
Wire Wire Line
	17700 6000 17800 6000
Wire Wire Line
	18300 6100 18350 6100
Wire Wire Line
	18350 6100 18350 6200
Wire Notes Line
	16500 2500 19500 2500
Wire Notes Line
	19500 2500 19500 8500
Wire Notes Line
	19500 8500 16500 8500
Wire Notes Line
	16500 8500 16500 2500
Wire Wire Line
	4500 4500 4500 5000
Wire Wire Line
	17500 6200 17500 5650
Wire Wire Line
	17500 6200 17700 6200
$Comp
L power:+5V #PWR?
U 1 1 5EF363E1
P 17500 5650
F 0 "#PWR?" H 17500 5500 50  0001 C CNN
F 1 "+5V" H 17515 5823 50  0000 C CNN
F 2 "" H 17500 5650 50  0001 C CNN
F 3 "" H 17500 5650 50  0001 C CNN
	1    17500 5650
	1    0    0    -1  
$EndComp
Wire Wire Line
	4000 7500 4500 7500
Wire Wire Line
	4500 7500 4500 7250
$Comp
L power:+5V #PWR?
U 1 1 5EF3AE0D
P 4500 7250
F 0 "#PWR?" H 4500 7100 50  0001 C CNN
F 1 "+5V" H 4515 7423 50  0000 C CNN
F 2 "" H 4500 7250 50  0001 C CNN
F 3 "" H 4500 7250 50  0001 C CNN
	1    4500 7250
	1    0    0    -1  
$EndComp
Wire Wire Line
	3400 5100 17300 5100
Wire Wire Line
	4500 5000 18800 5000
Wire Wire Line
	4000 6000 17700 6000
Wire Wire Line
	4500 4000 17100 4000
Wire Wire Line
	3400 4100 17800 4100
Wire Wire Line
	18800 5000 18800 6400
Wire Wire Line
	17300 5100 17300 6400
Wire Wire Line
	18300 6300 18350 6300
Connection ~ 18350 6300
Wire Wire Line
	18350 6300 18350 6500
Wire Wire Line
	18800 6400 18300 6400
Wire Wire Line
	17800 6400 17300 6400
Wire Wire Line
	18300 6800 18300 6900
Wire Wire Line
	18300 6700 18350 6700
Connection ~ 18350 6700
Wire Wire Line
	18350 6700 18350 6950
Wire Wire Line
	18350 6600 18300 6600
Connection ~ 18350 6600
Wire Wire Line
	18350 6600 18350 6700
Wire Wire Line
	18300 6500 18350 6500
Connection ~ 18350 6500
Wire Wire Line
	18350 6500 18350 6600
Wire Wire Line
	17800 6100 17700 6100
Wire Wire Line
	17700 6100 17700 6000
Wire Wire Line
	18350 6100 18350 6000
Connection ~ 18350 6100
Wire Wire Line
	17800 6300 17700 6300
Wire Wire Line
	17700 6300 17700 6200
Connection ~ 17700 6200
Wire Wire Line
	17700 6200 17800 6200
Wire Wire Line
	18350 6200 18300 6200
Connection ~ 18350 6200
Wire Wire Line
	18350 6200 18350 6300
Wire Wire Line
	8500 12000 8500 11500
Connection ~ 8500 12000
$Comp
L power:+5V #PWR?
U 1 1 5EF76B5F
P 8500 11500
F 0 "#PWR?" H 8500 11350 50  0001 C CNN
F 1 "+5V" H 8515 11673 50  0000 C CNN
F 2 "" H 8500 11500 50  0001 C CNN
F 3 "" H 8500 11500 50  0001 C CNN
	1    8500 11500
	1    0    0    -1  
$EndComp
Text Label 16600 6500 0    50   ~ 0
I2C_CLK
Text Label 16600 6600 0    50   ~ 0
I2C_DAT
Text Label 16600 6700 0    50   ~ 0
HAT_ID_CLK
Text Label 16600 6800 0    50   ~ 0
HAT_ID_DAT
Text Label 16600 6900 0    50   ~ 0
RUN
Wire Wire Line
	13250 12000 11950 12000
Wire Wire Line
	13250 12100 11850 12100
Wire Wire Line
	13250 12200 11750 12200
Wire Wire Line
	13250 12300 11650 12300
Text Label 12050 12000 0    50   ~ 0
I2C_CLK
Text Label 12050 12100 0    50   ~ 0
I2C_DAT
Text Label 12050 12200 0    50   ~ 0
HAT_ID_CLK
Text Label 12050 12300 0    50   ~ 0
HAT_ID_DAT
Text Label 12050 12400 0    50   ~ 0
RUN
Wire Wire Line
	13250 11900 13000 11900
Wire Wire Line
	13000 11900 13000 11800
Wire Wire Line
	13250 11800 13000 11800
Connection ~ 13000 11800
Wire Wire Line
	13000 11800 13000 11500
Wire Wire Line
	13900 12400 13900 12300
Wire Wire Line
	13900 12300 13750 12300
$Comp
L power:+5V #PWR?
U 1 1 5EF9367E
P 13000 11500
F 0 "#PWR?" H 13000 11350 50  0001 C CNN
F 1 "+5V" H 13015 11673 50  0000 C CNN
F 2 "" H 13000 11500 50  0001 C CNN
F 3 "" H 13000 11500 50  0001 C CNN
	1    13000 11500
	1    0    0    -1  
$EndComp
Wire Wire Line
	13750 11800 13800 11800
Wire Wire Line
	13800 11800 13800 11900
$Comp
L power:GND #PWR?
U 1 1 5EFA1D15
P 13800 12500
F 0 "#PWR?" H 13800 12250 50  0001 C CNN
F 1 "GND" H 13805 12327 50  0000 C CNN
F 2 "" H 13800 12500 50  0001 C CNN
F 3 "" H 13800 12500 50  0001 C CNN
	1    13800 12500
	1    0    0    -1  
$EndComp
Wire Wire Line
	13750 11900 13800 11900
Connection ~ 13800 11900
Wire Wire Line
	13800 11900 13800 12000
Wire Wire Line
	13750 12000 13800 12000
Connection ~ 13800 12000
Wire Wire Line
	13750 12200 13800 12200
Connection ~ 13800 12200
Wire Wire Line
	13800 12200 13800 12500
Wire Wire Line
	11950 12000 11950 6500
Wire Wire Line
	11950 6500 17800 6500
Wire Wire Line
	11850 6600 11850 12100
Wire Wire Line
	11850 6600 17800 6600
Wire Wire Line
	11750 12200 11750 6700
Wire Wire Line
	11750 6700 17800 6700
Wire Wire Line
	11650 6800 11650 12300
Wire Wire Line
	11650 6800 17800 6800
Wire Wire Line
	11550 6900 18300 6900
Wire Wire Line
	11550 6900 11550 12400
Wire Wire Line
	11550 12400 13900 12400
Wire Wire Line
	13800 12000 13800 12200
Wire Wire Line
	13750 12100 14100 12100
Wire Wire Line
	14100 12100 14100 12850
Wire Wire Line
	14100 12850 11000 12850
Wire Wire Line
	11000 12850 11000 12300
Text Label 12050 12850 0    50   ~ 0
PWM_VENTILO
Wire Wire Line
	11000 12300 10400 12300
Wire Notes Line
	7450 11000 14500 11000
Wire Notes Line
	14500 11000 14500 13500
Wire Notes Line
	14500 13500 7450 13500
Wire Notes Line
	7450 13500 7450 11000
Text Label 16600 6000 0    50   ~ 0
CHARGEUR_IN
Text Label 16600 5100 0    50   ~ 0
ON-OFF_IN
Text Label 16600 5000 0    50   ~ 0
ON-OFF_OUT
Text Label 4650 5100 0    50   ~ 0
ON-OFF_IN
Text Label 4650 5000 0    50   ~ 0
ON-OFF_OUT
Text Label 4650 6000 0    50   ~ 0
CHARGEUR_IN
$EndSCHEMATC
