EESchema Schematic File Version 4
EELAYER 30 0
EELAYER END
$Descr A2 23386 16535
encoding utf-8
Sheet 2 2
Title "Electrical Schematics"
Date "2020-06-14"
Rev "A"
Comp "Lilian T."
Comment1 "TL 500 023"
Comment2 "Nano PC"
Comment3 "Deported Connectors for Screen"
Comment4 "Connecteurs"
$EndDescr
$Comp
L Connector:AudioJack4 J204
U 1 1 5EE64020
P 14200 6200
F 0 "J204" H 13870 6083 50  0000 R CNN
F 1 "AudioJack4" H 13870 6174 50  0000 R CNN
F 2 "" H 14200 6200 50  0001 C CNN
F 3 "~" H 14200 6200 50  0001 C CNN
	1    14200 6200
	-1   0    0    1   
$EndComp
Text Notes 5100 1350 0    79   ~ 16
Vers Écran
Text Notes 13550 1350 0    79   ~ 16
Vers Rapsberry Pi
$Comp
L Connector:HDMI_A_1.4 J202
U 1 1 5EE667BD
P 14400 3300
F 0 "J202" H 14830 3346 50  0000 L CNN
F 1 "HDMI_A_1.4" H 14830 3255 50  0000 L CNN
F 2 "" H 14425 3300 50  0001 C CNN
F 3 "https://en.wikipedia.org/wiki/HDMI" H 14425 3300 50  0001 C CNN
	1    14400 3300
	1    0    0    -1  
$EndComp
$Comp
L Connector:USB_A J206
U 1 1 5EE684BF
P 14300 7700
F 0 "J206" H 14070 7689 50  0000 R CNN
F 1 "USB_A" H 14070 7598 50  0000 R CNN
F 2 "" H 14450 7650 50  0001 C CNN
F 3 " ~" H 14450 7650 50  0001 C CNN
	1    14300 7700
	-1   0    0    -1  
$EndComp
$Comp
L Connector:Barrel_Jack_Switch J208
U 1 1 5EE6BAE0
P 14300 9400
F 0 "J208" H 14070 9442 50  0000 R CNN
F 1 "Barrel_Jack_Switch" H 14070 9351 50  0000 R CNN
F 2 "" H 14350 9360 50  0001 C CNN
F 3 "~" H 14350 9360 50  0001 C CNN
	1    14300 9400
	-1   0    0    -1  
$EndComp
Wire Notes Line
	5000 10000 5000 1500
Wire Notes Line
	7000 10000 5000 10000
Wire Notes Line
	7000 1500 7000 10000
Wire Notes Line
	5000 1500 7000 1500
$Comp
L Connector_Generic:Conn_01x02 J207
U 1 1 5EE6D5CB
P 6300 9400
F 0 "J207" H 6218 9617 50  0000 C CNN
F 1 "Conn_01x02" H 6218 9526 50  0000 C CNN
F 2 "" H 6300 9400 50  0001 C CNN
F 3 "~" H 6300 9400 50  0001 C CNN
	1    6300 9400
	-1   0    0    -1  
$EndComp
$Comp
L Connector_Generic:Conn_01x04 J205
U 1 1 5EE6AC1A
P 6300 7600
F 0 "J205" H 6218 7917 50  0000 C CNN
F 1 "Conn_01x04" H 6218 7826 50  0000 C CNN
F 2 "" H 6300 7600 50  0001 C CNN
F 3 "~" H 6300 7600 50  0001 C CNN
	1    6300 7600
	-1   0    0    -1  
$EndComp
$Comp
L Connector:HDMI_A_1.4 J201
U 1 1 5EE660E9
P 6100 3300
F 0 "J201" H 6529 3346 50  0000 L CNN
F 1 "HDMI_A_1.4" H 6529 3255 50  0000 L CNN
F 2 "" H 6125 3300 50  0001 C CNN
F 3 "https://en.wikipedia.org/wiki/HDMI" H 6125 3300 50  0001 C CNN
	1    6100 3300
	-1   0    0    -1  
$EndComp
Wire Notes Line
	13500 1500 15500 1500
Wire Notes Line
	15500 1500 15500 10000
Wire Notes Line
	15500 10000 13500 10000
Wire Notes Line
	13500 10000 13500 1500
Wire Wire Line
	6100 2200 6100 2100
Wire Wire Line
	6100 2100 14400 2100
Wire Wire Line
	14400 2100 14400 2200
Wire Wire Line
	14000 2500 6500 2500
Wire Wire Line
	6500 2600 14000 2600
Wire Wire Line
	14000 2700 6500 2700
Wire Wire Line
	6500 2800 14000 2800
Wire Wire Line
	14000 2900 6500 2900
Wire Wire Line
	6500 3000 14000 3000
Wire Wire Line
	14000 3100 6500 3100
Wire Wire Line
	6500 3200 14000 3200
Wire Wire Line
	14000 3400 6500 3400
Wire Wire Line
	6500 3600 14000 3600
Wire Wire Line
	14000 3700 6500 3700
Wire Wire Line
	6500 3900 14000 3900
Wire Wire Line
	14000 4000 6500 4000
Wire Wire Line
	6300 4400 6300 4500
Wire Wire Line
	14200 4500 14200 4400
Wire Wire Line
	14300 4400 14300 4500
Wire Wire Line
	14400 4400 14400 4500
Wire Wire Line
	6000 4400 6000 4500
Wire Wire Line
	14600 4400 14600 4500
Wire Wire Line
	5800 4400 5800 4500
Wire Wire Line
	14000 7500 6500 7500
Wire Wire Line
	6500 7600 13800 7600
Wire Wire Line
	13800 7600 13800 7700
Wire Wire Line
	13800 7700 14000 7700
Wire Wire Line
	14000 7800 13700 7800
Wire Wire Line
	13700 7800 13700 7700
Wire Wire Line
	13700 7700 6500 7700
Wire Wire Line
	14300 8200 14300 8100
Wire Wire Line
	14400 8100 14400 8200
Wire Wire Line
	14400 8200 14350 8200
Wire Wire Line
	6500 9400 13800 9400
Wire Wire Line
	13800 9400 13800 9300
Wire Wire Line
	13800 9300 14000 9300
Wire Wire Line
	14000 9500 13950 9500
$Comp
L power:GND #PWR0208
U 1 1 5EEE8C8B
P 13950 9650
F 0 "#PWR0208" H 13950 9400 50  0001 C CNN
F 1 "GND" H 13955 9477 50  0000 C CNN
F 2 "" H 13950 9650 50  0001 C CNN
F 3 "" H 13950 9650 50  0001 C CNN
	1    13950 9650
	1    0    0    -1  
$EndComp
$Comp
L power:GND #PWR0207
U 1 1 5EEE99F8
P 6550 9650
F 0 "#PWR0207" H 6550 9400 50  0001 C CNN
F 1 "GND" H 6555 9477 50  0000 C CNN
F 2 "" H 6550 9650 50  0001 C CNN
F 3 "" H 6550 9650 50  0001 C CNN
	1    6550 9650
	1    0    0    -1  
$EndComp
Wire Wire Line
	6550 9650 6550 9500
Wire Wire Line
	6550 9500 6500 9500
Wire Wire Line
	13950 9650 13950 9500
NoConn ~ 14000 9400
Wire Notes Line
	5000 11500 15500 11500
Wire Notes Line
	15500 11500 15500 15500
Wire Notes Line
	15500 15500 5000 15500
Wire Notes Line
	5000 15500 5000 11500
Text Notes 5150 11350 0    79   ~ 16
Carte Coude HDMI
Text Label 9500 2100 0    59   ~ 0
HDMI_5V
Text Label 9500 2500 0    59   ~ 0
HDMI_D2_P
Text Label 9500 2600 0    59   ~ 0
HDMI_D2_N
Text Label 9500 2700 0    59   ~ 0
HDMI_D1_P
Text Label 9500 2800 0    59   ~ 0
HDMI_D1_N
Text Label 9500 2900 0    59   ~ 0
HDMI_D0_P
Text Label 9500 3000 0    59   ~ 0
HDMI_D0_N
Text Label 9500 3100 0    59   ~ 0
HDMI_CK_P
Text Label 9500 3200 0    59   ~ 0
HDMI_CK_N
Text Label 9500 3400 0    59   ~ 0
HDMI_CEC
Text Label 9500 3600 0    59   ~ 0
HDMI_SCL
Text Label 9500 3700 0    59   ~ 0
HDMI_SDA
Text Label 9500 3900 0    59   ~ 0
HDMI_HEAC_P
Text Label 9500 4000 0    59   ~ 0
HDMI_HEAC_N
Wire Wire Line
	14700 4500 14700 4400
$Comp
L power:GND #PWR0202
U 1 1 5EF1BA73
P 14450 4600
F 0 "#PWR0202" H 14450 4350 50  0001 C CNN
F 1 "GND" H 14455 4427 50  0000 C CNN
F 2 "" H 14450 4600 50  0001 C CNN
F 3 "" H 14450 4600 50  0001 C CNN
	1    14450 4600
	1    0    0    -1  
$EndComp
Wire Wire Line
	5900 4500 5900 4400
$Comp
L power:GND #PWR0201
U 1 1 5EF23C47
P 6050 4600
F 0 "#PWR0201" H 6050 4350 50  0001 C CNN
F 1 "GND" H 6055 4427 50  0000 C CNN
F 2 "" H 6050 4600 50  0001 C CNN
F 3 "" H 6050 4600 50  0001 C CNN
	1    6050 4600
	1    0    0    -1  
$EndComp
Wire Wire Line
	14350 8200 14350 8300
Connection ~ 14350 8200
Wire Wire Line
	14350 8200 14300 8200
$Comp
L power:GND #PWR0206
U 1 1 5EF2781B
P 14350 8300
F 0 "#PWR0206" H 14350 8050 50  0001 C CNN
F 1 "GND" H 14355 8127 50  0000 C CNN
F 2 "" H 14350 8300 50  0001 C CNN
F 3 "" H 14350 8300 50  0001 C CNN
	1    14350 8300
	1    0    0    -1  
$EndComp
Wire Wire Line
	6500 7800 6550 7800
Wire Wire Line
	6550 7800 6550 7950
$Comp
L power:GND #PWR0205
U 1 1 5EF2B2CA
P 6550 7950
F 0 "#PWR0205" H 6550 7700 50  0001 C CNN
F 1 "GND" H 6555 7777 50  0000 C CNN
F 2 "" H 6550 7950 50  0001 C CNN
F 3 "" H 6550 7950 50  0001 C CNN
	1    6550 7950
	1    0    0    -1  
$EndComp
Wire Wire Line
	14200 4500 14300 4500
Connection ~ 14300 4500
Wire Wire Line
	14300 4500 14400 4500
Connection ~ 14400 4500
Wire Wire Line
	14400 4500 14450 4500
Connection ~ 14500 4500
Wire Wire Line
	14500 4500 14500 4400
Wire Wire Line
	14500 4500 14600 4500
Connection ~ 14600 4500
Wire Wire Line
	14450 4500 14450 4600
Connection ~ 14450 4500
Wire Wire Line
	14450 4500 14500 4500
Wire Wire Line
	14600 4500 14700 4500
Wire Wire Line
	5900 4500 6000 4500
Connection ~ 5900 4500
Connection ~ 6000 4500
Wire Wire Line
	6000 4500 6050 4500
Connection ~ 6100 4500
Wire Wire Line
	6100 4500 6100 4400
Wire Wire Line
	6100 4500 6200 4500
Connection ~ 6200 4500
Wire Wire Line
	6200 4500 6200 4400
Wire Wire Line
	6200 4500 6300 4500
Wire Wire Line
	6050 4500 6050 4600
Connection ~ 6050 4500
Wire Wire Line
	6050 4500 6100 4500
Wire Wire Line
	5800 4500 5900 4500
$Comp
L Connector:HDMI_A_1.4 J210
U 1 1 5EF7F021
P 14400 13300
F 0 "J210" H 14830 13346 50  0000 L CNN
F 1 "HDMI_A_1.4" H 14830 13255 50  0000 L CNN
F 2 "" H 14425 13300 50  0001 C CNN
F 3 "https://en.wikipedia.org/wiki/HDMI" H 14425 13300 50  0001 C CNN
	1    14400 13300
	1    0    0    -1  
$EndComp
$Comp
L Connector:HDMI_A_1.4 J209
U 1 1 5EF7F028
P 6100 13300
F 0 "J209" H 6529 13346 50  0000 L CNN
F 1 "HDMI_A_1.4" H 6529 13255 50  0000 L CNN
F 2 "" H 6125 13300 50  0001 C CNN
F 3 "https://en.wikipedia.org/wiki/HDMI" H 6125 13300 50  0001 C CNN
	1    6100 13300
	-1   0    0    -1  
$EndComp
Wire Wire Line
	6100 12200 6100 12100
Wire Wire Line
	6100 12100 14400 12100
Wire Wire Line
	14400 12100 14400 12200
Wire Wire Line
	14000 12500 6500 12500
Wire Wire Line
	6500 12600 14000 12600
Wire Wire Line
	14000 12700 6500 12700
Wire Wire Line
	6500 12800 14000 12800
Wire Wire Line
	14000 12900 6500 12900
Wire Wire Line
	6500 13000 14000 13000
Wire Wire Line
	14000 13100 6500 13100
Wire Wire Line
	6500 13200 14000 13200
Wire Wire Line
	14000 13400 6500 13400
Wire Wire Line
	6500 13600 14000 13600
Wire Wire Line
	14000 13700 6500 13700
Wire Wire Line
	6500 13900 14000 13900
Wire Wire Line
	14000 14000 6500 14000
Wire Wire Line
	6300 14400 6300 14500
Wire Wire Line
	14200 14500 14200 14400
Wire Wire Line
	14300 14400 14300 14500
Wire Wire Line
	14400 14400 14400 14500
Wire Wire Line
	6000 14400 6000 14500
Wire Wire Line
	14600 14400 14600 14500
Wire Wire Line
	5800 14400 5800 14500
Text Label 9500 12100 0    59   ~ 0
Coude_HDMI_5V
Text Label 9500 12500 0    59   ~ 0
Coude_HDMI_D2_P
Text Label 9500 12600 0    59   ~ 0
Coude_HDMI_D2_N
Text Label 9500 12700 0    59   ~ 0
Coude_HDMI_D1_P
Text Label 9500 12800 0    59   ~ 0
Coude_HDMI_D1_N
Text Label 9500 12900 0    59   ~ 0
Coude_HDMI_D0_P
Text Label 9500 13000 0    59   ~ 0
Coude_HDMI_D0_N
Text Label 9500 13100 0    59   ~ 0
Coude_HDMI_CK_P
Text Label 9500 13200 0    59   ~ 0
Coude_HDMI_CK_N
Text Label 9500 13400 0    59   ~ 0
Coude_HDMI_CEC
Text Label 9500 13600 0    59   ~ 0
Coude_HDMI_SCL
Text Label 9500 13700 0    59   ~ 0
Coude_HDMI_SDA
Text Label 9500 13900 0    59   ~ 0
Coude_HDMI_HEAC_P
Text Label 9500 14000 0    59   ~ 0
Coude_HDMI_HEAC_N
Wire Wire Line
	14700 14500 14700 14400
$Comp
L power:GND #PWR0210
U 1 1 5EF7F055
P 14450 14600
F 0 "#PWR0210" H 14450 14350 50  0001 C CNN
F 1 "GND" H 14455 14427 50  0000 C CNN
F 2 "" H 14450 14600 50  0001 C CNN
F 3 "" H 14450 14600 50  0001 C CNN
	1    14450 14600
	1    0    0    -1  
$EndComp
Wire Wire Line
	5900 14500 5900 14400
$Comp
L power:GND #PWR0209
U 1 1 5EF7F05C
P 6050 14600
F 0 "#PWR0209" H 6050 14350 50  0001 C CNN
F 1 "GND" H 6055 14427 50  0000 C CNN
F 2 "" H 6050 14600 50  0001 C CNN
F 3 "" H 6050 14600 50  0001 C CNN
	1    6050 14600
	1    0    0    -1  
$EndComp
Wire Wire Line
	14200 14500 14300 14500
Connection ~ 14300 14500
Wire Wire Line
	14300 14500 14400 14500
Connection ~ 14400 14500
Wire Wire Line
	14400 14500 14450 14500
Connection ~ 14500 14500
Wire Wire Line
	14500 14500 14500 14400
Wire Wire Line
	14500 14500 14600 14500
Connection ~ 14600 14500
Wire Wire Line
	14450 14500 14450 14600
Connection ~ 14450 14500
Wire Wire Line
	14450 14500 14500 14500
Wire Wire Line
	14600 14500 14700 14500
Wire Wire Line
	5900 14500 6000 14500
Connection ~ 5900 14500
Connection ~ 6000 14500
Wire Wire Line
	6000 14500 6050 14500
Connection ~ 6100 14500
Wire Wire Line
	6100 14500 6100 14400
Wire Wire Line
	6100 14500 6200 14500
Connection ~ 6200 14500
Wire Wire Line
	6200 14500 6200 14400
Wire Wire Line
	6200 14500 6300 14500
Wire Wire Line
	6050 14500 6050 14600
Connection ~ 6050 14500
Wire Wire Line
	6050 14500 6100 14500
Wire Wire Line
	5800 14500 5900 14500
Text Label 9500 9400 0    59   ~ 0
V_Alim_Ecran
Text Label 9500 7500 0    59   ~ 0
USB_Tactile_VBUS
Text Label 9500 7600 0    59   ~ 0
USB_Tactile_Data_P
Text Label 9500 7700 0    59   ~ 0
USB_Tactite_Data_N
Wire Wire Line
	6500 6100 14000 6100
Wire Wire Line
	6500 6000 14000 6000
$Comp
L Connector_Generic:Conn_01x04 J203
U 1 1 5EFAFB0A
P 6300 6100
F 0 "J203" H 6218 6417 50  0000 C CNN
F 1 "Conn_01x04" H 6218 6326 50  0000 C CNN
F 2 "" H 6300 6100 50  0001 C CNN
F 3 "~" H 6300 6100 50  0001 C CNN
	1    6300 6100
	-1   0    0    -1  
$EndComp
Wire Wire Line
	6500 6300 6550 6300
Wire Wire Line
	6550 6300 6550 6450
$Comp
L power:GND #PWR0203
U 1 1 5EFB657E
P 6550 6450
F 0 "#PWR0203" H 6550 6200 50  0001 C CNN
F 1 "GND" H 6555 6277 50  0000 C CNN
F 2 "" H 6550 6450 50  0001 C CNN
F 3 "" H 6550 6450 50  0001 C CNN
	1    6550 6450
	1    0    0    -1  
$EndComp
Wire Wire Line
	14000 6300 13950 6300
Wire Wire Line
	13950 6300 13950 6450
$Comp
L power:GND #PWR0204
U 1 1 5EFBDD3A
P 13950 6450
F 0 "#PWR0204" H 13950 6200 50  0001 C CNN
F 1 "GND" H 13955 6277 50  0000 C CNN
F 2 "" H 13950 6450 50  0001 C CNN
F 3 "" H 13950 6450 50  0001 C CNN
	1    13950 6450
	1    0    0    -1  
$EndComp
Text Label 9500 6000 0    59   ~ 0
AUDIO_Left
Text Label 9500 6100 0    59   ~ 0
AUDIO_Right
Wire Wire Line
	6500 6200 14000 6200
Text Label 9500 6200 0    59   ~ 0
AUDIO_Micro
$EndSCHEMATC
